memory/testbenches/RAM_SP_SR_RW_TB1.vcd
$date
	Fri Jun 26 02:30:01 2020
$end
$version
	Icarus Verilog
$end
$timescale
	1s
$end
$scope module RAM_SP_SR_RW_TB1 $end
$var wire 8 ! data_out [7:0] $end
$var reg 8 " address [7:0] $end
$var reg 1 # clk $end
$var reg 1 $ cs $end
$var reg 8 % data_in [7:0] $end
$var reg 1 & we $end
$var integer 32 ' i [31:0] $end
$var integer 32 ( seed [31:0] $end
$scope module ram $end
$var wire 8 ) address [7:0] $end
$var wire 1 # clk $end
$var wire 1 $ cs $end
$var wire 8 * data_in [7:0] $end
$var wire 1 & we $end
$var reg 8 + data_out [7:0] $end
$upscope $end
$upscope $end
$enddefinitions $end
#0
$dumpvars
bx +
bx *
bx )
b1 (
bx '
x&
bx %
x$
0#
bx "
bx !
$end
#3
1$
1&
b0 "
b0 )
b0 %
b0 *
b0 '
#5
1#
#10
0#
#13
b1 "
b1 )
b1 %
b1 *
b1 '
1$
1&
#15
1#
#20
0#
#23
b10 "
b10 )
b10 %
b10 *
b10 '
1$
1&
#25
1#
#30
0#
#33
b11 "
b11 )
b11 %
b11 *
b11 '
1$
1&
#35
1#
#40
0#
#43
b100 "
b100 )
b100 %
b100 *
b100 '
1$
1&
#45
1#
#50
0#
#53
b101 "
b101 )
b101 %
b101 *
b101 '
1$
1&
#55
1#
#60
0#
#63
b110 "
b110 )
b110 %
b110 *
b110 '
1$
1&
#65
1#
#70
0#
#73
b111 "
b111 )
b111 %
b111 *
b111 '
1$
1&
#75
1#
#80
0#
#83
b1000 "
b1000 )
b1000 %
b1000 *
b1000 '
1$
1&
#85
1#
#90
0#
#93
b1001 "
b1001 )
b1001 %
b1001 *
b1001 '
1$
1&
#95
1#
#100
0#
#103
b1010 "
b1010 )
b1010 %
b1010 *
b1010 '
1$
1&
#105
1#
#110
0#
#113
b1011 "
b1011 )
b1011 %
b1011 *
b1011 '
1$
1&
#115
1#
#120
0#
#123
b1100 "
b1100 )
b1100 %
b1100 *
b1100 '
1$
1&
#125
1#
#130
0#
#133
b1101 "
b1101 )
b1101 %
b1101 *
b1101 '
1$
1&
#135
1#
#140
0#
#143
b1110 "
b1110 )
b1110 %
b1110 *
b1110 '
1$
1&
#145
1#
#150
0#
#153
b1111 "
b1111 )
b1111 %
b1111 *
b1111 '
1$
1&
#155
1#
#160
0#
#163
b10000 "
b10000 )
b10000 %
b10000 *
b10000 '
1$
1&
#165
1#
#170
0#
#173
b10001 "
b10001 )
b10001 %
b10001 *
b10001 '
1$
1&
#175
1#
#180
0#
#183
b10010 "
b10010 )
b10010 %
b10010 *
b10010 '
1$
1&
#185
1#
#190
0#
#193
b10011 "
b10011 )
b10011 %
b10011 *
b10011 '
1$
1&
#195
1#
#200
0#
#203
b10100 "
b10100 )
b10100 %
b10100 *
b10100 '
1$
1&
#205
1#
#210
0#
#213
b10101 "
b10101 )
b10101 %
b10101 *
b10101 '
1$
1&
#215
1#
#220
0#
#223
b10110 "
b10110 )
b10110 %
b10110 *
b10110 '
1$
1&
#225
1#
#230
0#
#233
b10111 "
b10111 )
b10111 %
b10111 *
b10111 '
1$
1&
#235
1#
#240
0#
#243
b11000 "
b11000 )
b11000 %
b11000 *
b11000 '
1$
1&
#245
1#
#250
0#
#253
b11001 "
b11001 )
b11001 %
b11001 *
b11001 '
1$
1&
#255
1#
#260
0#
#263
b11010 "
b11010 )
b11010 %
b11010 *
b11010 '
1$
1&
#265
1#
#270
0#
#273
b11011 "
b11011 )
b11011 %
b11011 *
b11011 '
1$
1&
#275
1#
#280
0#
#283
b11100 "
b11100 )
b11100 %
b11100 *
b11100 '
1$
1&
#285
1#
#290
0#
#293
b11101 "
b11101 )
b11101 %
b11101 *
b11101 '
1$
1&
#295
1#
#300
0#
#303
b11110 "
b11110 )
b11110 %
b11110 *
b11110 '
1$
1&
#305
1#
#310
0#
#313
b11111 "
b11111 )
b11111 %
b11111 *
b11111 '
1$
1&
#315
1#
#320
0#
#323
b100000 "
b100000 )
b100000 %
b100000 *
b100000 '
1$
1&
#325
1#
#330
0#
#333
b100001 "
b100001 )
b100001 %
b100001 *
b100001 '
1$
1&
#335
1#
#340
0#
#343
b100010 "
b100010 )
b100010 %
b100010 *
b100010 '
1$
1&
#345
1#
#350
0#
#353
b100011 "
b100011 )
b100011 %
b100011 *
b100011 '
1$
1&
#355
1#
#360
0#
#363
b100100 "
b100100 )
b100100 %
b100100 *
b100100 '
1$
1&
#365
1#
#370
0#
#373
b100101 "
b100101 )
b100101 %
b100101 *
b100101 '
1$
1&
#375
1#
#380
0#
#383
b100110 "
b100110 )
b100110 %
b100110 *
b100110 '
1$
1&
#385
1#
#390
0#
#393
b100111 "
b100111 )
b100111 %
b100111 *
b100111 '
1$
1&
#395
1#
#400
0#
#403
b101000 "
b101000 )
b101000 %
b101000 *
b101000 '
1$
1&
#405
1#
#410
0#
#413
b101001 "
b101001 )
b101001 %
b101001 *
b101001 '
1$
1&
#415
1#
#420
0#
#423
b101010 "
b101010 )
b101010 %
b101010 *
b101010 '
1$
1&
#425
1#
#430
0#
#433
b101011 "
b101011 )
b101011 %
b101011 *
b101011 '
1$
1&
#435
1#
#440
0#
#443
b101100 "
b101100 )
b101100 %
b101100 *
b101100 '
1$
1&
#445
1#
#450
0#
#453
b101101 "
b101101 )
b101101 %
b101101 *
b101101 '
1$
1&
#455
1#
#460
0#
#463
b101110 "
b101110 )
b101110 %
b101110 *
b101110 '
1$
1&
#465
1#
#470
0#
#473
b101111 "
b101111 )
b101111 %
b101111 *
b101111 '
1$
1&
#475
1#
#480
0#
#483
b110000 "
b110000 )
b110000 %
b110000 *
b110000 '
1$
1&
#485
1#
#490
0#
#493
b110001 "
b110001 )
b110001 %
b110001 *
b110001 '
1$
1&
#495
1#
#500
0#
#503
b110010 "
b110010 )
b110010 %
b110010 *
b110010 '
1$
1&
#505
1#
#510
0#
#513
b110011 "
b110011 )
b110011 %
b110011 *
b110011 '
1$
1&
#515
1#
#520
0#
#523
b110100 "
b110100 )
b110100 %
b110100 *
b110100 '
1$
1&
#525
1#
#530
0#
#533
b110101 "
b110101 )
b110101 %
b110101 *
b110101 '
1$
1&
#535
1#
#540
0#
#543
b110110 "
b110110 )
b110110 %
b110110 *
b110110 '
1$
1&
#545
1#
#550
0#
#553
b110111 "
b110111 )
b110111 %
b110111 *
b110111 '
1$
1&
#555
1#
#560
0#
#563
b111000 "
b111000 )
b111000 %
b111000 *
b111000 '
1$
1&
#565
1#
#570
0#
#573
b111001 "
b111001 )
b111001 %
b111001 *
b111001 '
1$
1&
#575
1#
#580
0#
#583
b111010 "
b111010 )
b111010 %
b111010 *
b111010 '
1$
1&
#585
1#
#590
0#
#593
b111011 "
b111011 )
b111011 %
b111011 *
b111011 '
1$
1&
#595
1#
#600
0#
#603
b111100 "
b111100 )
b111100 %
b111100 *
b111100 '
1$
1&
#605
1#
#610
0#
#613
b111101 "
b111101 )
b111101 %
b111101 *
b111101 '
1$
1&
#615
1#
#620
0#
#623
b111110 "
b111110 )
b111110 %
b111110 *
b111110 '
1$
1&
#625
1#
#630
0#
#633
b111111 "
b111111 )
b111111 %
b111111 *
b111111 '
1$
1&
#635
1#
#640
0#
#643
b1000000 "
b1000000 )
b1000000 %
b1000000 *
b1000000 '
1$
1&
#645
1#
#650
0#
#653
b1000001 "
b1000001 )
b1000001 %
b1000001 *
b1000001 '
1$
1&
#655
1#
#660
0#
#663
b1000010 "
b1000010 )
b1000010 %
b1000010 *
b1000010 '
1$
1&
#665
1#
#670
0#
#673
b1000011 "
b1000011 )
b1000011 %
b1000011 *
b1000011 '
1$
1&
#675
1#
#680
0#
#683
b1000100 "
b1000100 )
b1000100 %
b1000100 *
b1000100 '
1$
1&
#685
1#
#690
0#
#693
b1000101 "
b1000101 )
b1000101 %
b1000101 *
b1000101 '
1$
1&
#695
1#
#700
0#
#703
b1000110 "
b1000110 )
b1000110 %
b1000110 *
b1000110 '
1$
1&
#705
1#
#710
0#
#713
b1000111 "
b1000111 )
b1000111 %
b1000111 *
b1000111 '
1$
1&
#715
1#
#720
0#
#723
b1001000 "
b1001000 )
b1001000 %
b1001000 *
b1001000 '
1$
1&
#725
1#
#730
0#
#733
b1001001 "
b1001001 )
b1001001 %
b1001001 *
b1001001 '
1$
1&
#735
1#
#740
0#
#743
b1001010 "
b1001010 )
b1001010 %
b1001010 *
b1001010 '
1$
1&
#745
1#
#750
0#
#753
b1001011 "
b1001011 )
b1001011 %
b1001011 *
b1001011 '
1$
1&
#755
1#
#760
0#
#763
b1001100 "
b1001100 )
b1001100 %
b1001100 *
b1001100 '
1$
1&
#765
1#
#770
0#
#773
b1001101 "
b1001101 )
b1001101 %
b1001101 *
b1001101 '
1$
1&
#775
1#
#780
0#
#783
b1001110 "
b1001110 )
b1001110 %
b1001110 *
b1001110 '
1$
1&
#785
1#
#790
0#
#793
b1001111 "
b1001111 )
b1001111 %
b1001111 *
b1001111 '
1$
1&
#795
1#
#800
0#
#803
b1010000 "
b1010000 )
b1010000 %
b1010000 *
b1010000 '
1$
1&
#805
1#
#810
0#
#813
b1010001 "
b1010001 )
b1010001 %
b1010001 *
b1010001 '
1$
1&
#815
1#
#820
0#
#823
b1010010 "
b1010010 )
b1010010 %
b1010010 *
b1010010 '
1$
1&
#825
1#
#830
0#
#833
b1010011 "
b1010011 )
b1010011 %
b1010011 *
b1010011 '
1$
1&
#835
1#
#840
0#
#843
b1010100 "
b1010100 )
b1010100 %
b1010100 *
b1010100 '
1$
1&
#845
1#
#850
0#
#853
b1010101 "
b1010101 )
b1010101 %
b1010101 *
b1010101 '
1$
1&
#855
1#
#860
0#
#863
b1010110 "
b1010110 )
b1010110 %
b1010110 *
b1010110 '
1$
1&
#865
1#
#870
0#
#873
b1010111 "
b1010111 )
b1010111 %
b1010111 *
b1010111 '
1$
1&
#875
1#
#880
0#
#883
b1011000 "
b1011000 )
b1011000 %
b1011000 *
b1011000 '
1$
1&
#885
1#
#890
0#
#893
b1011001 "
b1011001 )
b1011001 %
b1011001 *
b1011001 '
1$
1&
#895
1#
#900
0#
#903
b1011010 "
b1011010 )
b1011010 %
b1011010 *
b1011010 '
1$
1&
#905
1#
#910
0#
#913
b1011011 "
b1011011 )
b1011011 %
b1011011 *
b1011011 '
1$
1&
#915
1#
#920
0#
#923
b1011100 "
b1011100 )
b1011100 %
b1011100 *
b1011100 '
1$
1&
#925
1#
#930
0#
#933
b1011101 "
b1011101 )
b1011101 %
b1011101 *
b1011101 '
1$
1&
#935
1#
#940
0#
#943
b1011110 "
b1011110 )
b1011110 %
b1011110 *
b1011110 '
1$
1&
#945
1#
#950
0#
#953
b1011111 "
b1011111 )
b1011111 %
b1011111 *
b1011111 '
1$
1&
#955
1#
#960
0#
#963
b1100000 "
b1100000 )
b1100000 %
b1100000 *
b1100000 '
1$
1&
#965
1#
#970
0#
#973
b1100001 "
b1100001 )
b1100001 %
b1100001 *
b1100001 '
1$
1&
#975
1#
#980
0#
#983
b1100010 "
b1100010 )
b1100010 %
b1100010 *
b1100010 '
1$
1&
#985
1#
#990
0#
#993
b1100011 "
b1100011 )
b1100011 %
b1100011 *
b1100011 '
1$
1&
#995
1#
#1000
0#
#1003
b1100100 "
b1100100 )
b1100100 %
b1100100 *
b1100100 '
1$
1&
#1005
1#
#1010
0#
#1013
b1100101 "
b1100101 )
b1100101 %
b1100101 *
b1100101 '
1$
1&
#1015
1#
#1020
0#
#1023
b1100110 "
b1100110 )
b1100110 %
b1100110 *
b1100110 '
1$
1&
#1025
1#
#1030
0#
#1033
b1100111 "
b1100111 )
b1100111 %
b1100111 *
b1100111 '
1$
1&
#1035
1#
#1040
0#
#1043
b1101000 "
b1101000 )
b1101000 %
b1101000 *
b1101000 '
1$
1&
#1045
1#
#1050
0#
#1053
b1101001 "
b1101001 )
b1101001 %
b1101001 *
b1101001 '
1$
1&
#1055
1#
#1060
0#
#1063
b1101010 "
b1101010 )
b1101010 %
b1101010 *
b1101010 '
1$
1&
#1065
1#
#1070
0#
#1073
b1101011 "
b1101011 )
b1101011 %
b1101011 *
b1101011 '
1$
1&
#1075
1#
#1080
0#
#1083
b1101100 "
b1101100 )
b1101100 %
b1101100 *
b1101100 '
1$
1&
#1085
1#
#1090
0#
#1093
b1101101 "
b1101101 )
b1101101 %
b1101101 *
b1101101 '
1$
1&
#1095
1#
#1100
0#
#1103
b1101110 "
b1101110 )
b1101110 %
b1101110 *
b1101110 '
1$
1&
#1105
1#
#1110
0#
#1113
b1101111 "
b1101111 )
b1101111 %
b1101111 *
b1101111 '
1$
1&
#1115
1#
#1120
0#
#1123
b1110000 "
b1110000 )
b1110000 %
b1110000 *
b1110000 '
1$
1&
#1125
1#
#1130
0#
#1133
b1110001 "
b1110001 )
b1110001 %
b1110001 *
b1110001 '
1$
1&
#1135
1#
#1140
0#
#1143
b1110010 "
b1110010 )
b1110010 %
b1110010 *
b1110010 '
1$
1&
#1145
1#
#1150
0#
#1153
b1110011 "
b1110011 )
b1110011 %
b1110011 *
b1110011 '
1$
1&
#1155
1#
#1160
0#
#1163
b1110100 "
b1110100 )
b1110100 %
b1110100 *
b1110100 '
1$
1&
#1165
1#
#1170
0#
#1173
b1110101 "
b1110101 )
b1110101 %
b1110101 *
b1110101 '
1$
1&
#1175
1#
#1180
0#
#1183
b1110110 "
b1110110 )
b1110110 %
b1110110 *
b1110110 '
1$
1&
#1185
1#
#1190
0#
#1193
b1110111 "
b1110111 )
b1110111 %
b1110111 *
b1110111 '
1$
1&
#1195
1#
#1200
0#
#1203
b1111000 "
b1111000 )
b1111000 %
b1111000 *
b1111000 '
1$
1&
#1205
1#
#1210
0#
#1213
b1111001 "
b1111001 )
b1111001 %
b1111001 *
b1111001 '
1$
1&
#1215
1#
#1220
0#
#1223
b1111010 "
b1111010 )
b1111010 %
b1111010 *
b1111010 '
1$
1&
#1225
1#
#1230
0#
#1233
b1111011 "
b1111011 )
b1111011 %
b1111011 *
b1111011 '
1$
1&
#1235
1#
#1240
0#
#1243
b1111100 "
b1111100 )
b1111100 %
b1111100 *
b1111100 '
1$
1&
#1245
1#
#1250
0#
#1253
b1111101 "
b1111101 )
b1111101 %
b1111101 *
b1111101 '
1$
1&
#1255
1#
#1260
0#
#1263
b1111110 "
b1111110 )
b1111110 %
b1111110 *
b1111110 '
1$
1&
#1265
1#
#1270
0#
#1273
b1111111 "
b1111111 )
b1111111 %
b1111111 *
b1111111 '
1$
1&
#1275
1#
#1280
0#
#1283
b10000000 "
b10000000 )
b10000000 %
b10000000 *
b10000000 '
1$
1&
#1285
1#
#1290
0#
#1293
b10000001 "
b10000001 )
b10000001 %
b10000001 *
b10000001 '
1$
1&
#1295
1#
#1300
0#
#1303
b10000010 "
b10000010 )
b10000010 %
b10000010 *
b10000010 '
1$
1&
#1305
1#
#1310
0#
#1313
b10000011 "
b10000011 )
b10000011 %
b10000011 *
b10000011 '
1$
1&
#1315
1#
#1320
0#
#1323
b10000100 "
b10000100 )
b10000100 %
b10000100 *
b10000100 '
1$
1&
#1325
1#
#1330
0#
#1333
b10000101 "
b10000101 )
b10000101 %
b10000101 *
b10000101 '
1$
1&
#1335
1#
#1340
0#
#1343
b10000110 "
b10000110 )
b10000110 %
b10000110 *
b10000110 '
1$
1&
#1345
1#
#1350
0#
#1353
b10000111 "
b10000111 )
b10000111 %
b10000111 *
b10000111 '
1$
1&
#1355
1#
#1360
0#
#1363
b10001000 "
b10001000 )
b10001000 %
b10001000 *
b10001000 '
1$
1&
#1365
1#
#1370
0#
#1373
b10001001 "
b10001001 )
b10001001 %
b10001001 *
b10001001 '
1$
1&
#1375
1#
#1380
0#
#1383
b10001010 "
b10001010 )
b10001010 %
b10001010 *
b10001010 '
1$
1&
#1385
1#
#1390
0#
#1393
b10001011 "
b10001011 )
b10001011 %
b10001011 *
b10001011 '
1$
1&
#1395
1#
#1400
0#
#1403
b10001100 "
b10001100 )
b10001100 %
b10001100 *
b10001100 '
1$
1&
#1405
1#
#1410
0#
#1413
b10001101 "
b10001101 )
b10001101 %
b10001101 *
b10001101 '
1$
1&
#1415
1#
#1420
0#
#1423
b10001110 "
b10001110 )
b10001110 %
b10001110 *
b10001110 '
1$
1&
#1425
1#
#1430
0#
#1433
b10001111 "
b10001111 )
b10001111 %
b10001111 *
b10001111 '
1$
1&
#1435
1#
#1440
0#
#1443
b10010000 "
b10010000 )
b10010000 %
b10010000 *
b10010000 '
1$
1&
#1445
1#
#1450
0#
#1453
b10010001 "
b10010001 )
b10010001 %
b10010001 *
b10010001 '
1$
1&
#1455
1#
#1460
0#
#1463
b10010010 "
b10010010 )
b10010010 %
b10010010 *
b10010010 '
1$
1&
#1465
1#
#1470
0#
#1473
b10010011 "
b10010011 )
b10010011 %
b10010011 *
b10010011 '
1$
1&
#1475
1#
#1480
0#
#1483
b10010100 "
b10010100 )
b10010100 %
b10010100 *
b10010100 '
1$
1&
#1485
1#
#1490
0#
#1493
b10010101 "
b10010101 )
b10010101 %
b10010101 *
b10010101 '
1$
1&
#1495
1#
#1500
0#
#1503
b10010110 "
b10010110 )
b10010110 %
b10010110 *
b10010110 '
1$
1&
#1505
1#
#1510
0#
#1513
b10010111 "
b10010111 )
b10010111 %
b10010111 *
b10010111 '
1$
1&
#1515
1#
#1520
0#
#1523
b10011000 "
b10011000 )
b10011000 %
b10011000 *
b10011000 '
1$
1&
#1525
1#
#1530
0#
#1533
b10011001 "
b10011001 )
b10011001 %
b10011001 *
b10011001 '
1$
1&
#1535
1#
#1540
0#
#1543
b10011010 "
b10011010 )
b10011010 %
b10011010 *
b10011010 '
1$
1&
#1545
1#
#1550
0#
#1553
b10011011 "
b10011011 )
b10011011 %
b10011011 *
b10011011 '
1$
1&
#1555
1#
#1560
0#
#1563
b10011100 "
b10011100 )
b10011100 %
b10011100 *
b10011100 '
1$
1&
#1565
1#
#1570
0#
#1573
b10011101 "
b10011101 )
b10011101 %
b10011101 *
b10011101 '
1$
1&
#1575
1#
#1580
0#
#1583
b10011110 "
b10011110 )
b10011110 %
b10011110 *
b10011110 '
1$
1&
#1585
1#
#1590
0#
#1593
b10011111 "
b10011111 )
b10011111 %
b10011111 *
b10011111 '
1$
1&
#1595
1#
#1600
0#
#1603
b10100000 "
b10100000 )
b10100000 %
b10100000 *
b10100000 '
1$
1&
#1605
1#
#1610
0#
#1613
b10100001 "
b10100001 )
b10100001 %
b10100001 *
b10100001 '
1$
1&
#1615
1#
#1620
0#
#1623
b10100010 "
b10100010 )
b10100010 %
b10100010 *
b10100010 '
1$
1&
#1625
1#
#1630
0#
#1633
b10100011 "
b10100011 )
b10100011 %
b10100011 *
b10100011 '
1$
1&
#1635
1#
#1640
0#
#1643
b10100100 "
b10100100 )
b10100100 %
b10100100 *
b10100100 '
1$
1&
#1645
1#
#1650
0#
#1653
b10100101 "
b10100101 )
b10100101 %
b10100101 *
b10100101 '
1$
1&
#1655
1#
#1660
0#
#1663
b10100110 "
b10100110 )
b10100110 %
b10100110 *
b10100110 '
1$
1&
#1665
1#
#1670
0#
#1673
b10100111 "
b10100111 )
b10100111 %
b10100111 *
b10100111 '
1$
1&
#1675
1#
#1680
0#
#1683
b10101000 "
b10101000 )
b10101000 %
b10101000 *
b10101000 '
1$
1&
#1685
1#
#1690
0#
#1693
b10101001 "
b10101001 )
b10101001 %
b10101001 *
b10101001 '
1$
1&
#1695
1#
#1700
0#
#1703
b10101010 "
b10101010 )
b10101010 %
b10101010 *
b10101010 '
1$
1&
#1705
1#
#1710
0#
#1713
b10101011 "
b10101011 )
b10101011 %
b10101011 *
b10101011 '
1$
1&
#1715
1#
#1720
0#
#1723
b10101100 "
b10101100 )
b10101100 %
b10101100 *
b10101100 '
1$
1&
#1725
1#
#1730
0#
#1733
b10101101 "
b10101101 )
b10101101 %
b10101101 *
b10101101 '
1$
1&
#1735
1#
#1740
0#
#1743
b10101110 "
b10101110 )
b10101110 %
b10101110 *
b10101110 '
1$
1&
#1745
1#
#1750
0#
#1753
b10101111 "
b10101111 )
b10101111 %
b10101111 *
b10101111 '
1$
1&
#1755
1#
#1760
0#
#1763
b10110000 "
b10110000 )
b10110000 %
b10110000 *
b10110000 '
1$
1&
#1765
1#
#1770
0#
#1773
b10110001 "
b10110001 )
b10110001 %
b10110001 *
b10110001 '
1$
1&
#1775
1#
#1780
0#
#1783
b10110010 "
b10110010 )
b10110010 %
b10110010 *
b10110010 '
1$
1&
#1785
1#
#1790
0#
#1793
b10110011 "
b10110011 )
b10110011 %
b10110011 *
b10110011 '
1$
1&
#1795
1#
#1800
0#
#1803
b10110100 "
b10110100 )
b10110100 %
b10110100 *
b10110100 '
1$
1&
#1805
1#
#1810
0#
#1813
b10110101 "
b10110101 )
b10110101 %
b10110101 *
b10110101 '
1$
1&
#1815
1#
#1820
0#
#1823
b10110110 "
b10110110 )
b10110110 %
b10110110 *
b10110110 '
1$
1&
#1825
1#
#1830
0#
#1833
b10110111 "
b10110111 )
b10110111 %
b10110111 *
b10110111 '
1$
1&
#1835
1#
#1840
0#
#1843
b10111000 "
b10111000 )
b10111000 %
b10111000 *
b10111000 '
1$
1&
#1845
1#
#1850
0#
#1853
b10111001 "
b10111001 )
b10111001 %
b10111001 *
b10111001 '
1$
1&
#1855
1#
#1860
0#
#1863
b10111010 "
b10111010 )
b10111010 %
b10111010 *
b10111010 '
1$
1&
#1865
1#
#1870
0#
#1873
b10111011 "
b10111011 )
b10111011 %
b10111011 *
b10111011 '
1$
1&
#1875
1#
#1880
0#
#1883
b10111100 "
b10111100 )
b10111100 %
b10111100 *
b10111100 '
1$
1&
#1885
1#
#1890
0#
#1893
b10111101 "
b10111101 )
b10111101 %
b10111101 *
b10111101 '
1$
1&
#1895
1#
#1900
0#
#1903
b10111110 "
b10111110 )
b10111110 %
b10111110 *
b10111110 '
1$
1&
#1905
1#
#1910
0#
#1913
b10111111 "
b10111111 )
b10111111 %
b10111111 *
b10111111 '
1$
1&
#1915
1#
#1920
0#
#1923
b11000000 "
b11000000 )
b11000000 %
b11000000 *
b11000000 '
1$
1&
#1925
1#
#1930
0#
#1933
b11000001 "
b11000001 )
b11000001 %
b11000001 *
b11000001 '
1$
1&
#1935
1#
#1940
0#
#1943
b11000010 "
b11000010 )
b11000010 %
b11000010 *
b11000010 '
1$
1&
#1945
1#
#1950
0#
#1953
b11000011 "
b11000011 )
b11000011 %
b11000011 *
b11000011 '
1$
1&
#1955
1#
#1960
0#
#1963
b11000100 "
b11000100 )
b11000100 %
b11000100 *
b11000100 '
1$
1&
#1965
1#
#1970
0#
#1973
b11000101 "
b11000101 )
b11000101 %
b11000101 *
b11000101 '
1$
1&
#1975
1#
#1980
0#
#1983
b11000110 "
b11000110 )
b11000110 %
b11000110 *
b11000110 '
1$
1&
#1985
1#
#1990
0#
#1993
b11000111 "
b11000111 )
b11000111 %
b11000111 *
b11000111 '
1$
1&
#1995
1#
#2000
0#
#2003
b11001000 "
b11001000 )
b11001000 %
b11001000 *
b11001000 '
1$
1&
#2005
1#
#2010
0#
#2013
b11001001 "
b11001001 )
b11001001 %
b11001001 *
b11001001 '
1$
1&
#2015
1#
#2020
0#
#2023
b11001010 "
b11001010 )
b11001010 %
b11001010 *
b11001010 '
1$
1&
#2025
1#
#2030
0#
#2033
b11001011 "
b11001011 )
b11001011 %
b11001011 *
b11001011 '
1$
1&
#2035
1#
#2040
0#
#2043
b11001100 "
b11001100 )
b11001100 %
b11001100 *
b11001100 '
1$
1&
#2045
1#
#2050
0#
#2053
b11001101 "
b11001101 )
b11001101 %
b11001101 *
b11001101 '
1$
1&
#2055
1#
#2060
0#
#2063
b11001110 "
b11001110 )
b11001110 %
b11001110 *
b11001110 '
1$
1&
#2065
1#
#2070
0#
#2073
b11001111 "
b11001111 )
b11001111 %
b11001111 *
b11001111 '
1$
1&
#2075
1#
#2080
0#
#2083
b11010000 "
b11010000 )
b11010000 %
b11010000 *
b11010000 '
1$
1&
#2085
1#
#2090
0#
#2093
b11010001 "
b11010001 )
b11010001 %
b11010001 *
b11010001 '
1$
1&
#2095
1#
#2100
0#
#2103
b11010010 "
b11010010 )
b11010010 %
b11010010 *
b11010010 '
1$
1&
#2105
1#
#2110
0#
#2113
b11010011 "
b11010011 )
b11010011 %
b11010011 *
b11010011 '
1$
1&
#2115
1#
#2120
0#
#2123
b11010100 "
b11010100 )
b11010100 %
b11010100 *
b11010100 '
1$
1&
#2125
1#
#2130
0#
#2133
b11010101 "
b11010101 )
b11010101 %
b11010101 *
b11010101 '
1$
1&
#2135
1#
#2140
0#
#2143
b11010110 "
b11010110 )
b11010110 %
b11010110 *
b11010110 '
1$
1&
#2145
1#
#2150
0#
#2153
b11010111 "
b11010111 )
b11010111 %
b11010111 *
b11010111 '
1$
1&
#2155
1#
#2160
0#
#2163
b11011000 "
b11011000 )
b11011000 %
b11011000 *
b11011000 '
1$
1&
#2165
1#
#2170
0#
#2173
b11011001 "
b11011001 )
b11011001 %
b11011001 *
b11011001 '
1$
1&
#2175
1#
#2180
0#
#2183
b11011010 "
b11011010 )
b11011010 %
b11011010 *
b11011010 '
1$
1&
#2185
1#
#2190
0#
#2193
b11011011 "
b11011011 )
b11011011 %
b11011011 *
b11011011 '
1$
1&
#2195
1#
#2200
0#
#2203
b11011100 "
b11011100 )
b11011100 %
b11011100 *
b11011100 '
1$
1&
#2205
1#
#2210
0#
#2213
b11011101 "
b11011101 )
b11011101 %
b11011101 *
b11011101 '
1$
1&
#2215
1#
#2220
0#
#2223
b11011110 "
b11011110 )
b11011110 %
b11011110 *
b11011110 '
1$
1&
#2225
1#
#2230
0#
#2233
b11011111 "
b11011111 )
b11011111 %
b11011111 *
b11011111 '
1$
1&
#2235
1#
#2240
0#
#2243
b11100000 "
b11100000 )
b11100000 %
b11100000 *
b11100000 '
1$
1&
#2245
1#
#2250
0#
#2253
b11100001 "
b11100001 )
b11100001 %
b11100001 *
b11100001 '
1$
1&
#2255
1#
#2260
0#
#2263
b11100010 "
b11100010 )
b11100010 %
b11100010 *
b11100010 '
1$
1&
#2265
1#
#2270
0#
#2273
b11100011 "
b11100011 )
b11100011 %
b11100011 *
b11100011 '
1$
1&
#2275
1#
#2280
0#
#2283
b11100100 "
b11100100 )
b11100100 %
b11100100 *
b11100100 '
1$
1&
#2285
1#
#2290
0#
#2293
b11100101 "
b11100101 )
b11100101 %
b11100101 *
b11100101 '
1$
1&
#2295
1#
#2300
0#
#2303
b11100110 "
b11100110 )
b11100110 %
b11100110 *
b11100110 '
1$
1&
#2305
1#
#2310
0#
#2313
b11100111 "
b11100111 )
b11100111 %
b11100111 *
b11100111 '
1$
1&
#2315
1#
#2320
0#
#2323
b11101000 "
b11101000 )
b11101000 %
b11101000 *
b11101000 '
1$
1&
#2325
1#
#2330
0#
#2333
b11101001 "
b11101001 )
b11101001 %
b11101001 *
b11101001 '
1$
1&
#2335
1#
#2340
0#
#2343
b11101010 "
b11101010 )
b11101010 %
b11101010 *
b11101010 '
1$
1&
#2345
1#
#2350
0#
#2353
b11101011 "
b11101011 )
b11101011 %
b11101011 *
b11101011 '
1$
1&
#2355
1#
#2360
0#
#2363
b11101100 "
b11101100 )
b11101100 %
b11101100 *
b11101100 '
1$
1&
#2365
1#
#2370
0#
#2373
b11101101 "
b11101101 )
b11101101 %
b11101101 *
b11101101 '
1$
1&
#2375
1#
#2380
0#
#2383
b11101110 "
b11101110 )
b11101110 %
b11101110 *
b11101110 '
1$
1&
#2385
1#
#2390
0#
#2393
b11101111 "
b11101111 )
b11101111 %
b11101111 *
b11101111 '
1$
1&
#2395
1#
#2400
0#
#2403
b11110000 "
b11110000 )
b11110000 %
b11110000 *
b11110000 '
1$
1&
#2405
1#
#2410
0#
#2413
b11110001 "
b11110001 )
b11110001 %
b11110001 *
b11110001 '
1$
1&
#2415
1#
#2420
0#
#2423
b11110010 "
b11110010 )
b11110010 %
b11110010 *
b11110010 '
1$
1&
#2425
1#
#2430
0#
#2433
b11110011 "
b11110011 )
b11110011 %
b11110011 *
b11110011 '
1$
1&
#2435
1#
#2440
0#
#2443
b11110100 "
b11110100 )
b11110100 %
b11110100 *
b11110100 '
1$
1&
#2445
1#
#2450
0#
#2453
b11110101 "
b11110101 )
b11110101 %
b11110101 *
b11110101 '
1$
1&
#2455
1#
#2460
0#
#2463
b11110110 "
b11110110 )
b11110110 %
b11110110 *
b11110110 '
1$
1&
#2465
1#
#2470
0#
#2473
b11110111 "
b11110111 )
b11110111 %
b11110111 *
b11110111 '
1$
1&
#2475
1#
#2480
0#
#2483
b11111000 "
b11111000 )
b11111000 %
b11111000 *
b11111000 '
1$
1&
#2485
1#
#2490
0#
#2493
b11111001 "
b11111001 )
b11111001 %
b11111001 *
b11111001 '
1$
1&
#2495
1#
#2500
0#
#2503
b11111010 "
b11111010 )
b11111010 %
b11111010 *
b11111010 '
1$
1&
#2505
1#
#2510
0#
#2513
b11111011 "
b11111011 )
b11111011 %
b11111011 *
b11111011 '
1$
1&
#2515
1#
#2520
0#
#2523
b11111100 "
b11111100 )
b11111100 %
b11111100 *
b11111100 '
1$
1&
#2525
1#
#2530
0#
#2533
b11111101 "
b11111101 )
b11111101 %
b11111101 *
b11111101 '
1$
1&
#2535
1#
#2540
0#
#2543
b11111110 "
b11111110 )
b11111110 %
b11111110 *
b11111110 '
1$
1&
#2545
1#
#2550
0#
#2553
b11111111 "
b11111111 )
b11111111 %
b11111111 *
b11111111 '
1$
1&
#2555
1#
#2560
0#
#2563
b100000000 '
0$
0&
#2565
b0 !
b0 +
1$
b0 "
b0 )
b10000110111001110 (
1#
#2570
0#
#2575
b111000 !
b111000 +
b111000 "
b111000 )
b11100010110011000001111110111 (
1#
#2580
0#
